{
    "id": "nankai-less",
    "name": "NanKaiLess",
    "description": "App description...",
    "version": "0.1.0",
    "dependencies": {
        "gini": "*",
        "mail": "*",
        "auth":"*"
    }
}
